%YAML 1.1
%TAG !u! tag:unity3d.com,2011:
--- !u!114 &11400000
MonoBehaviour:
  m_ObjectHideFlags: 0
  m_CorrespondingSourceObject: {fileID: 0}
  m_PrefabInstance: {fileID: 0}
  m_PrefabAsset: {fileID: 0}
  m_GameObject: {fileID: 0}
  m_Enabled: 1
  m_EditorHideFlags: 0
  m_Script: {fileID: 11500000, guid: 0e3f4de254bd30243836fd9dc57958dd, type: 3}
  m_Name: Level_3
  m_EditorClassIdentifier: 
  _rocksNum: {x: 90, y: 105}
  _rocksHP: {x: 1, y: 1}
  _rockSpeedRange: {x: 1, y: 2}
  _rockRotationSpeedRange: {x: 30, y: 180}
  _rockAimingError: 0.3
